affine==2.3.0
ansiwrap==0.8.4
astroid==2.5.1
async-generator==1.10
autopep8==1.5.5
backports.functools-lru-cache==1.6.1
black==20.8b1
blinker==1.4
brotlipy==0.7.0
bump2version==1.0.1
bumpversion==0.6.0
cached-property==1.5.1
cachetools==4.2.1
certifi==2020.12.5
certipy==0.1.3
click==7.1.2
click-plugins==1.1.1
cligj==0.7.1
colorama==0.4.4
colorlover==0.3.0
conda==4.9.2
coverage==5.5
cufflinks==0.17.3
cycler==0.10.0
cytoolz==0.11.0
databricks-cli==0.9.1
decorator==4.4.2
defusedxml==0.6.0
Deprecated==1.2.11
distlib==0.3.1
docker-pycreds==0.4.0
docstring-parser==0.7.3
docutils==0.16
earthpy==0.9.2
elyra==2.0.1
filelock==3.0.12
findspark==1.3.0
Fiona==1.8.18
flake8==3.8.4
Flask==1.1.2
folium==0.12.1
gevent==21.1.2
gmpy2==2.1.0b1
google-api-core==1.26.1
google-auth==1.27.1
google-cloud-core==1.6.0
google-cloud-storage==1.36.1
google-crc32c==1.1.2
google-resumable-media==1.2.0
googleapis-common-protos==1.53.0
gorilla==0.3.0
greenlet==1.0.0
HeapDict==1.0.1
ipython-genutils==0.2.0
ipython-sql==0.4.0
isort==5.7.0
itsdangerous==1.1.0
jedi==0.17.2
jeepney==0.6.0
jupyter-lsp==1.1.4
jupyter-resource-usage==0.5.1
jupyterlab-git==0.30.0b1
jupyterlab-lsp==3.4.1
keyring==23.0.0
kfp==1.1.2
kfp-notebook==0.18.0
kfp-pipeline-spec==0.1.6
kfp-server-api==1.4.1
kfp-tekton==0.5.1rc1
kubernetes==11.0.0
lazy-object-proxy==1.5.2
llvmlite==0.35.0
locket==0.2.0
mccabe==0.6.1
munch==2.5.0
mypy-extensions==0.4.3
nbconvert==5.6.1
nbdime==3.0.0b1
nose-exclude==0.5.0
oauthlib==3.0.1
pamela==1.0.0
pandocfilters==1.4.2
papermill==2.3.2
parso==0.7.1
partd==1.1.0
pathspec==0.8.1
patsy==0.5.1
pkginfo==1.7.0
prettytable==0.7.2
protobuf==3.15.4
pyarrow==3.0.0
pyasn1==0.4.8
pyasn1-modules==0.2.8
pycodestyle==2.6.0
pycurl==7.43.0.6
pydocstyle==5.1.1
pyflakes==2.2.0
pylint==2.7.2
pyodbc==4.0.30
pyparsing==2.4.7
pyproj==3.0.1
pyspark==3.1.1
pytest==6.2.2
python-dateutil==2.8.1
python-editor==1.0.4
python-jsonrpc-server==0.4.0
python-language-server==0.36.2
PyYAML==5.4.1
querystring-parser==1.2.4
rasterio==1.2.1
readme-renderer==29.0
regex==2020.11.13
requests-oauthlib==1.3.0
requests-toolbelt==0.9.1
retrying==1.3.3
rfc3986==1.4.0
rfc3986-validator==0.1.1
rope==0.18.0
rsa==4.7.2
scikit-image==0.18.1
SecretStorage==3.3.1
Send2Trash==1.5.0
snowballstemmer==2.1.0
snuggs==1.4.7
spylon==0.3.0
spylon-kernel==0.4.1
sqlalchemy-dremio==1.1.5
strip-hints==0.1.9
tblib==1.6.0
tenacity==7.0.0
testpath==0.4.4
textwrap3==0.9.2
tox==3.23.0
twine==3.3.0
typed-ast==1.4.2
ujson==4.0.2
vincent==0.4.4
virtualenv==20.4.2
watchdog==2.0.2
webencodings==0.5.1
Werkzeug==1.0.1
wrapt==1.12.1
yapf==0.30.0
zict==2.0.0
zope.event==4.5.0
zope.interface==5.2.0
